__label__1 , can you help me with the total tweets done so far .
__label__1 , can you help me with the count of tweets made till now .
__label__1 , can you tell me the total tweet count .
__label__1 , can you tell the total tweet count so far .
__label__1 , can you tell the tweets made so far .
__label__1 , can you tell me how many tweets were made so far .
__label__1 , can you help me with the total tweets .
__label__1 , can you tell the tweets done for @ python .
__label__1 , can you tell the tweets made for # java till now .
__label__1 , can you tell the tweet count for @ python .
__label__1 , can you tell the tweet count for # java
__label__1 , can you tell the total tweets for # java .
__label__1 , can you tell the total tweets for @ python .
__label__1 , can you tell the tweets in total for # java .
__label__1 , can you tell the tweets in total for @ python
__label__1 , can you tell me the how many tweet are made in expo so far .
__label__1 , can you tell me the total number of tweets made in expo so far .
__label__1 , can you help me with the total number of tweets made for # python .
__label__1 , can you help me with the count of tweets which included # python .
__label__1 , can you help me with the count of tweets which included # java .
__label__1 , can you help me with the total number of tweets which were made between 1am to 5pm .
__label__1 , can you tell me tweet count for # python .
__label__1 , can you tell me the tweets made in favour of # python .
__label__1 , can you tell the count of tweets for python .
__label__1 , can you tell the count of tweets for expo .
__label__1 , can you tell the tweet count of expo .
__label__1 , can you tell the total count of tweet of python .
__label__1 , can you tell the tweets in total for expo .
__label__1 , can you count the tweets made for python .
__label__1 , can you count the tweet done for @ java .
__label__1 , can you tell the tweet count for
__label__1 , count of tweets for @ handle between 1am to 3am .
__label__1 , help me with the total number of tweets .
__label__1 , how many total tweets are there .
__label__1 , how many tweers were done for @ python .
__label__1 , how many tweet are done for the day .
__label__1 , how many tweet done from android .
__label__1 , how many tweet were made fom ios in total .
__label__1 , how many tweets adone till now for # java from ios devices .
__label__1 , how many tweets are done from desktops .
__label__1 , how many tweets are done till now overall .
__label__1 , how many tweets are made till now for @ python from android devices .
__label__1 , how many tweets done from ios .
__label__1 , how many tweets for java
__label__1 , how many tweets for python
__label__1 , how many tweets have been received ?
__label__1 , how many tweets have come from android for python .
__label__1 , how many tweets have come from android .
__label__1 , how many tweets have come from apple .
__label__1 , how many tweets have come from laptops .
__label__1 , how many tweets have come so far .
__label__1 , how many tweets have happened till now .
__label__1 , how many tweets in total
__label__1 , how many tweets in total .
__label__1 , how many tweets please .
__label__1 , how many tweets were done for @ java .
__label__1 , how many tweets were made between 1 to 2 .
__label__1 , how many tweets were made from android in total .
__label__1 , how many tweets were made from android .
__label__1 , how many tweets were made in total for @ handle .
__label__1 , how many tweets .
__label__1 , in all how many tweets were received .
__label__1 , in total how many tweets were received between 2am to 5am .
__label__1 , number of tweets done from andriod devices till now .
__label__1 , overall how many tweets are made so far .
__label__1 , overall tweets done for # python
__label__1 , the number of tweets made till now .
__label__1 , till now how many tweets are done .
__label__1 , total count of tweets made in sapient expo 2018 .
__label__1 , total how many tweets have been received for python .
__label__1 , total how many tweets have come .
__label__1 , total number of tweets in expo
__label__1 , total number of tweets made by now .
__label__1 , total number of tweets .
__label__1 , total tweet count ?
__label__1 , total tweet count between 2am to 3am .
__label__1 , total tweet count for java .
__label__1 , total tweet count for python
__label__1 , total tweets between 2am to 3am .
__label__1 , total tweets count .
__label__1 , total tweets done by now .
__label__1 , total tweets done for # python from andriod devices .
__label__1 , total tweets done .
__label__1 , total tweets in sapient expo 2018 .
__label__1 , total tweets made for @ handle .
__label__1 , total tweets made in sapient expo 2018 .
__label__1 , total tweets made till now for @ handle .
__label__1 , total tweets .
__label__1 , tweet count ?
__label__1 , tweet count between 2am to 3am .
__label__1 , tweet count for java .
__label__1 , tweet count for python
__label__1 , tweet count from android .
__label__1 , tweet count from ios .
__label__1 , tweet count from laptop .
__label__1 , tweet count please .
__label__1 , tweet made in total between 2am to 3am .
__label__1 , tweet made till now for # java .
__label__1 , tweets count for expo desk
__label__1 , tweets count for java .
__label__1 , tweets count for python .
__label__1 , tweets done for # java from any device till now .
__label__1 , tweets done from ios devices till now .
__label__1 , tweets done overall between 1am to 12am .
__label__1 , tweets done please .
__label__1 , tweets done so far .
__label__1 , tweets done till now .
__label__1 , tweets made for expo desk .
__label__1 , tweets made in expo so far .
__label__1 , tweets made in sapient expo 2018 .
__label__1 , tweets made in sapient expo .
__label__1 , tweets made so far .
__label__1 , tweets made till now for # python .
__label__1 , tweets made till now .
__label__1 , tweets so far in sapient expo .
__label__1 , tweets so far made in expo .
__label__1 , tweets so far .
__label__1 , tweets that have been done in expo so far .
__label__1 , tweets thats done so far .
__label__1 , what are the total tweets done on expo .
__label__1 , what is the total tweet count .
__label__1 , what is the total tweet number .
__label__1 , whats the total tweet count so far .
__label__1 , what are the total tweets captured .
__label__1 , what in the count of the tweets captured .
__label__1 , count of tweets captured by you .
__label__1 , count of tweets captured that were made for @ handle .
__label__1 , count of tweets that were caotured and made for @ handle .
__label__1 , count of tweets caotured in expo .
__label__1 , total count of tweets captured in expo 2018 .
__label__3 , what was tweeted for python .
__label__3 , what tweets were made for java .
__label__3 , what was tweeted by @ user .
__label__3 , what tweets were done for # handle .
__label__3 , what tweets said about # handle
__label__3 , what tweet said about @ python .
__label__3 , what was in the tweets about @ java .
__label__3 , what tweets were around technology .
__label__3 , what were the tweets around banking .
__label__3 , what tweets were made around ai .
__label__3 , tweets made for ai .
__label__3 , tweet for @ python .
__label__3 , summary of tweets for java
__label__3 , summary of tweets around python .
__label__3 , what was in the tweets that were made for python .
__label__3 , what was tweeted most between 2am to 3pm .
__label__3 , what tweets were positive for @ python .
__label__3 , what were negative tweets for # java .
__label__3 , what are did positive tweets say about python .
__label__3 , what did negative tweets say about java .
__label__3 , tweets that were most liked .
__label__3 , some tweets that were made earlier today .
__label__3 , some tweet that were made for @ python .
__label__3 , can you tell some tweets made for # java .
__label__3 , please tell some tweets made for @ python .
__label__3 , can you help me with some of the tweets that were made for java
__label__3 , can you help me with some of the tweets that were made for python .
__label__3 , can you help me wih the tweets that were made for java .
__label__3 , can you help me with the positive tweets made for java .
__label__3 , can you help me with the negative tweets made for python .
__label__3 , can you help me with the tweets made by @ handle
__label__3 , can you help me with the tweets made by @ python
__label__3 , can you help me with the tweets made for # python
__label__3 , can you help with the tweets made for # python
__label__3 , can you help me with some of the tweets made by @ python .
__label__3 , what did the tweets that were made aournd # java say .
__label__3 , what are the some of the positive tweets made by @ handle
__label__3 , what are some of the negative twets made by @ handle .
__label__3 , can you please mention some of the negative tweets made by users .
__label__3 , can you please list out some of the tweets by me .
__label__3 , list out some of the tweets by @ handle .
__label__3 , list out some of the tweets that were made by @ handle .
__label__3 , list some of the tweets .
__label__3 , list some tweets .
__label__3 , list out a few tweets by @ handle .
__label__3 , list our tweets on # java .
__label__3 , list out few tweets on # python .
__label__3 , list out some tweets that were made with 1am to 2pm .
__label__3 , list some tweets that were made between 1pm to 5pm .
__label__3 , list some tweets that were made for @ handle between 1am to 4am .
__label__3 , list out some of the tweets that were made by @ handle between 1m to 5am .
__label__3 , can you help me with some of the tweets that were made between 1am to 3am by @ handle
__label__3 , can you help me with some of the tweets that were made between 2pm to 5pm for # python .
__label__3 , can you list out some tweets that were positive in nature and were made between 3am to 5am .
__label__3 , please list out some tweets that were positive in nature and made by @ handle .
__label__3 , what are the tweets that were posiive in nature and made by @ handle .
__label__3 , what tweets are posisitve in nature and made by @ handle .
__label__3 , tweets made by me .
__label__3 , tweets made by @ handle .
__label__3 , tweets made for # hashtag .
__label__3 , tweets done by @ handle .
__label__3 , please mention a few tweets made by android .
__label__3 , please mention a few tweets that were made from ios devices .
__label__3 , mention out a few tweets that were made by laptop .
__label__3 , can you please mention a few tweet made by ios .
__label__3 , can you mention tweets that were made from ios .
__label__3 , can you mention out a few tweets made form laptops .
__label__3 , can you please mention a few tweets made from laptops and that were positive in nature .
__label__3 , can you please mention a few tweets that were made by @ handle and were positive in nature .
__label__3 , can you please help me with a a few tweets that were positive in nature and made between 1am to 3am .
__label__3 , tweet which were positive and made between 1am to 2am .
__label__3 , what tweet were positive and made by @ handle .
__label__3 , what tweets were negative and made by @ handle .
__label__3 , can you please help me with tweets that said about banking .
__label__3 , please mention a few tweets that said about banking
__label__3 , please list a few tweet which said about technology .
__label__3 , please list few tweets that were arounf kiosk decolarions .
__label__3 , please mention a few tweets around decoration .
__label__3 , please list a few tweets around look and feel .
__label__3 , please list a few tweets made in expo .
__label__3 , what tweets were mad ein expo .
__label__3 , what were the tweets made in expo .
__label__3 , what are some of the tweets made in expo .
__label__3 , what are some of the positive tweets made in expo .
__label__3 , what are a few negative tweets in expo .
__label__3 , please mention a few tweets of expo .
__label__3 , please mention a few tweets in expo that were made by @ handle
__label__3 , please mention some tweets made by @ handle that were mad ein the expo .
__label__3 , plaase list a few tweets made in the expo for # handle .
__label__3 , please list a few tweets tweets that were made by @ handle in expo .
__label__3 , what tweet was made by @ handle in expo .
__label__3 , please tell me some tweets made by me .
__label__3 , please tell me tweets made by people for me in the expo .
__label__3 , please help me with the tweets by me .
__label__3 , can you help me with tweets made by me .
__label__3 , what tweets were made by top personnel in expo .
__label__3 , what tweets were made by officials at expo that were most liked .
__label__3 , what tweets were made by @ handle which were liked a lot .
__label__3 , what tweets between 2am to 3am made by @ handle were liked a lot .
__label__3 , what are the tweets that you like .
__label__3 , what tweets did you llike .
__label__3 , what tweets did you feel were postive
__label__3 , what tweet did you feel were negative
__label__3 , what are some of the most positive comments .
__label__3 , what is the tweet that was most liked .
__label__3 , what tweet did you capture .
__label__3 , what are some of the tweets captured by you .
__label__3 , what are tweets that you captured between 1pm to 3pm .
__label__3 , what are the tweets captured between 1pm to 3pm .
__label__3 , what tweets captured between 1am to 3am .
__label__3 , what tweets captured by android device .
__label__3 , what tweets captured from ios device .
__label__3 , what tweets captured from dektop machines .
__label__3 , what tweet were captured from ios devices that were made in expo 2018 .
__label__2 , who received maximum tweets .
__label__2 , who received minimum tweets
__label__2 , who got most positive tweets .
__label__2 , who got most negative tweets .
__label__2 , who received tweets around ai .
__label__2 , who received maximum tweets between 1am to 3am .
__label__2 , who got the maximum tweets from 3am to 5am .
__label__2 , who was tweeted the most .
__label__2 , who was the most popular kiosk .
__label__2 , who was tweeted most at the expo 2018 .
__label__2 , who was tweeted maximum times at expo .
__label__2 , who was liked most at the expo .
__label__2 , who was most famous at the expo .
__label__2 , who is the most famous team at expo 2018 .
__label__2 , who got most likes at the expo .
__label__2 , who got most like between 1am to 3am at the expo .
__label__2 , who was liked the most at the expo between 1am to 3am .
__label__2 , who was tweeted most from an android device .
__label__2 , who was tweeted maximum time from android devices .
__label__2 , who was tweetd maximum time from expo .
__label__2 , which team was most liked at the expo .
__label__2 , which kiosk was most liked at the expo .
__label__2 , which team was most tweeted at the expo .
__label__2 , between 1am to 3am which team got the maximum tweets in the expo .
__label__2 , between @ handle and @ handle who had more tweets .
__label__2 , between @ handle and @ handle who got more tweets between 1am to 3am .
__label__2 , between 1am to 3am which team was tweeted more at the expo .
__label__2 , betwee @ handle and @ handle who got more positive tweets .
__label__2 , between @ handle and @ handle who got more comments .
__label__2 , betwee @ handle and @ handle whos koisk was more like .
__label__2 , people tweeted most about which @ handle
__label__2 , people tweeted maximum about which kiosk .
__label__2 , which kiosk people liked most at the expo .
__label__2 , at the expo which team got most tweets .
__label__2 , at the expo which was the most famous team .
__label__2 , at the expo 2018 which team had the maximum tweets .
__label__2 , which team had the maximum tweets at the expo .
__label__2 , which kiosk hade more likability at the expo between @ handle and @ handle .
__label__2 , which was the most tweeted handle at the expo .
__label__2 , which was the most liked handle at the expo .
__label__2 , which was the most tweeted team at the expo .
__label__2 , please tell the most tweeted handle at the expo .
__label__2 , please tell the team which got most tweets at the expo .
__label__2 , please help me with the team that got maximum tweets at the expo .
__label__2 , please tell the handle which got most positive tweets at the expo .
__label__2 , please tell the handle which got the most tweets at the expo .
__label__2 , please mention the name of the team which got maximum tweets at the expo .
__label__2 , please help me the handle that got maximum tweets .
__label__2 , please tell the teams name with got most positive tweets .
__label__2 , team name which got most tweets .
__label__2 , what was the name of the team that got maximum tweets .
__label__2 , what was the team which got most positive tweets .
__label__2 , which team got most positive teets between 1pm tp 3pm .
__label__2 , which is the team with maximum posisitve comments .
__label__2 , which is the team with maximum comments .
__label__2 , which is the team with maximum negative comments .
__label__2 , which team has the maximum positive comments .
__label__2 , which team has the maximum comments
__label__2 , handle which got maximum tweets
__label__2 , handle which was liked the most
__label__2 , handle with maximum tweets count .
__label__2 , handle with the most tweets
__label__2 , handle with the most comments .
__label__2 , handles that had maximum comments .
__label__2 , handles that was tweeted most between 1am to 3am .
__label__2 , handle tweeted most from android .
__label__2 , handle tweeted least
__label__2 , handle tweeted least from ios .
__label__2 , handle which was tweeted most from an android device .
__label__2 , handle that got most tweets .
__label__2 , handle which was tweeted most between 6pm to 5pm .
__label__2 , which handle was tweeted most .
__label__2 , which handle was most positive .
__label__2 , which handle had the most positive comments .
__label__2 , which is the handle that was tweeted most .
__label__2 , which handle was liked most by the people at expo .
__label__2 , which handle has been liked most at the expo .
__label__2 , which handle was most liked at the epxo .
__label__2 , which handle got maximum likes at the epxo .
__label__2 , which is the handle that was tweeted most of the times at the expo .
__label__2 , which handle was tweeted maximum number of times at the expo .
__label__2 , which is the handle that got the most number of tweets at the expo 2018 .
__label__2 , at expo 2018 which was the handle that was most talke about by the people .
__label__2 , at expo which handle was most tweeted .
__label__2 , which handle is the most tweeted handle at expo 2018 between 4pm to 5pm .
__label__2 , between 6pm to 7pm which handle has got the most number of tweets .
__label__2 , which handle got the most positive comments between 3pm to 5pm .
__label__2 , which was the handle that got most positive comments between 6pm to 7pm .
__label__2 , handle that got most comments .
__label__2 , handle that got most number of negative tweets from the people .
__label__2 , handle which got minimum tweets .
__label__2 , handle which got lowest number of tweets .
__label__2 , handle which got lowest count of tweets between 5pm tp 7pm .
__label__2 , handle which was least tweeted at the expo 2018 .
__label__2 , handle which was least tweeted at the expo .
__label__2 , handle which was talked in reference to development .
__label__2 , handle which was talked most in positive sense .
__label__2 , what are the handle that were talked about at the expo .
__label__2 , what handles were mentioned a the expo .
__label__2 , what the handle at the expo 2018 .
__label__2 , what handle were most liked .
__label__2 , which handles hashtag was most appreciated at the expo .
__label__2 , which is the most talked about handle at the expo .